\relax 
\providecommand\hyper@newdestlabel[2]{}
\citation{Lohmann.1998}
\@writefile{toc}{\contentsline {chapter}{\numberline {4}Anmerkungen}{11}{chapter.32}\protected@file@percent }
\@writefile{lof}{\addvspace {10\p@ }}
\@writefile{lot}{\addvspace {10\p@ }}
\@writefile{lol}{\addvspace {10\p@ }}
\newlabel{cha:Anmerkungen}{{4}{11}{Anmerkungen}{chapter.32}{}}
\@writefile{toc}{\contentsline {section}{\numberline {4.1}Mehrgrößensystem}{11}{section.33}\protected@file@percent }
\@writefile{toc}{\contentsline {section}{\numberline {4.2}LQ-Reglerentwurf}{11}{section.34}\protected@file@percent }
\@writefile{toc}{\contentsline {section}{\numberline {4.3}Störgrößenaufschaltung}{11}{section.35}\protected@file@percent }
\newlabel{eq:Zustandsdifferentialgleichung bei Störgrößenaufschaltung}{{4.1}{11}{Störgrößenaufschaltung}{equation.36}{}}
\@setckpt{Anmerkung}{
\setcounter{page}{12}
\setcounter{equation}{1}
\setcounter{enumi}{0}
\setcounter{enumii}{0}
\setcounter{enumiii}{0}
\setcounter{enumiv}{0}
\setcounter{footnote}{0}
\setcounter{mpfootnote}{0}
\setcounter{part}{0}
\setcounter{chapter}{4}
\setcounter{section}{3}
\setcounter{subsection}{0}
\setcounter{subsubsection}{0}
\setcounter{paragraph}{0}
\setcounter{subparagraph}{0}
\setcounter{figure}{0}
\setcounter{table}{0}
\setcounter{subfigure}{0}
\setcounter{lofdepth}{1}
\setcounter{subtable}{0}
\setcounter{lotdepth}{1}
\setcounter{parentequation}{0}
\setcounter{float@type}{8}
\setcounter{OptionTest}{0}
\setcounter{lstnumber}{1}
\setcounter{NAT@ctr}{0}
\setcounter{Item}{0}
\setcounter{Hfootnote}{0}
\setcounter{bookmark@seq@number}{0}
\setcounter{LT@tables}{0}
\setcounter{LT@chunks}{0}
\setcounter{@todonotes@numberoftodonotes}{0}
\setcounter{blindtext}{1}
\setcounter{Blindtext}{5}
\setcounter{blind@countparstart}{0}
\setcounter{blindlist}{0}
\setcounter{blindlistlevel}{0}
\setcounter{blindlist@level}{0}
\setcounter{blind@listcount}{0}
\setcounter{blind@levelcount}{0}
\setcounter{blind@randomcount}{0}
\setcounter{blind@randommax}{0}
\setcounter{blind@pangramcount}{0}
\setcounter{blind@pangrammax}{0}
\setcounter{tikztiming@nrows}{0}
\setcounter{tikztimingrows}{0}
\setcounter{tikztimingtrans}{0}
\setcounter{tikztimingtranspos}{0}
\setcounter{csvinputline}{0}
\setcounter{csvrow}{0}
\setcounter{csvcol}{0}
\setcounter{AM@survey}{0}
\setcounter{lstlisting}{0}
\setcounter{section@level}{1}
}
