\relax 
\providecommand\hyper@newdestlabel[2]{}
\citation{Wystup.2021b}
\citation{Wystup.2021b}
\citation{Wystup.2021b}
\citation{Wystup.2021b}
\citation{Hagl.2015}
\@writefile{toc}{\contentsline {chapter}{\numberline {2}Theoretischer Ansatz}{2}{chapter.4}\protected@file@percent }
\@writefile{lof}{\addvspace {10\p@ }}
\@writefile{lot}{\addvspace {10\p@ }}
\@writefile{lol}{\addvspace {10\p@ }}
\newlabel{cha:Ansatz}{{2}{2}{Theoretischer Ansatz}{chapter.4}{}}
\@writefile{lof}{\contentsline {figure}{\numberline {2.1}{\ignorespaces Aufbau und Funktionsweise eines Gleichstrommotors}}{2}{figure.5}\protected@file@percent }
\newlabel{fig:Gleichstrommotor}{{2.1}{2}{Aufbau und Funktionsweise eines Gleichstrommotors}{figure.5}{}}
\@writefile{lof}{\contentsline {figure}{\numberline {2.2}{\ignorespaces Ersatzschaltbild eines Gleichstrommotors}}{2}{figure.6}\protected@file@percent }
\newlabel{fig:Ersatzschaltbild}{{2.2}{2}{Ersatzschaltbild eines Gleichstrommotors}{figure.6}{}}
\newlabel{eq:Maschengleichung}{{2.1}{2}{Theoretischer Ansatz}{equation.7}{}}
\citation{Hagl.2015}
\citation{Ulrich.2020}
\citation{Wystup.2021,Wikipedia.2021}
\citation{Kuemmeke.2021}
\citation{Kuemmeke.2021}
\newlabel{eq:Momentengleichung}{{2.2}{3}{Theoretischer Ansatz}{equation.8}{}}
\newlabel{eq:Zustandsdifferentialgleichung}{{2.5}{3}{Theoretischer Ansatz}{equation.11}{}}
\citation{Wystup.2021}
\citation{Wystup.2021}
\citation{Wystup.2021}
\citation{Wystup.2021}
\@writefile{lof}{\contentsline {figure}{\numberline {2.3}{\ignorespaces Zustandsraummodell eines Eingrößensystems}}{4}{figure.12}\protected@file@percent }
\newlabel{fig:Zustandsraumdarstellung}{{2.3}{4}{Zustandsraummodell eines Eingrößensystems}{figure.12}{}}
\newlabel{eq:Zustandsdifferentialgleichung des zustandsgeregelten Systems}{{2.6}{4}{Theoretischer Ansatz}{equation.13}{}}
\@writefile{lof}{\contentsline {figure}{\numberline {2.4}{\ignorespaces Allgemeine Darstellung einer Zustandsraumregelung}}{4}{figure.15}\protected@file@percent }
\newlabel{fig:Zustandsraumregelung}{{2.4}{4}{Allgemeine Darstellung einer Zustandsraumregelung}{figure.15}{}}
\newlabel{eq:Bestimmung der Eigenwerte}{{2.8}{5}{Theoretischer Ansatz}{equation.16}{}}
\newlabel{eq:char_Polynom}{{2.10}{5}{Theoretischer Ansatz}{equation.18}{}}
\citation{Wystup.2021}
\newlabel{eq:Matrix Übertragungsfunktion}{{2.14}{6}{Theoretischer Ansatz}{equation.22}{}}
\newlabel{eq:Führungsfilter}{{2.16}{6}{Theoretischer Ansatz}{equation.24}{}}
\@setckpt{Ansatz}{
\setcounter{page}{8}
\setcounter{equation}{18}
\setcounter{enumi}{0}
\setcounter{enumii}{0}
\setcounter{enumiii}{0}
\setcounter{enumiv}{0}
\setcounter{footnote}{0}
\setcounter{mpfootnote}{0}
\setcounter{part}{0}
\setcounter{chapter}{2}
\setcounter{section}{0}
\setcounter{subsection}{0}
\setcounter{subsubsection}{0}
\setcounter{paragraph}{0}
\setcounter{subparagraph}{0}
\setcounter{figure}{4}
\setcounter{table}{0}
\setcounter{subfigure}{0}
\setcounter{lofdepth}{1}
\setcounter{subtable}{0}
\setcounter{lotdepth}{1}
\setcounter{parentequation}{0}
\setcounter{float@type}{8}
\setcounter{OptionTest}{0}
\setcounter{lstnumber}{1}
\setcounter{NAT@ctr}{0}
\setcounter{Item}{0}
\setcounter{Hfootnote}{0}
\setcounter{bookmark@seq@number}{0}
\setcounter{LT@tables}{0}
\setcounter{LT@chunks}{0}
\setcounter{@todonotes@numberoftodonotes}{0}
\setcounter{blindtext}{1}
\setcounter{Blindtext}{5}
\setcounter{blind@countparstart}{0}
\setcounter{blindlist}{0}
\setcounter{blindlistlevel}{0}
\setcounter{blindlist@level}{0}
\setcounter{blind@listcount}{0}
\setcounter{blind@levelcount}{0}
\setcounter{blind@randomcount}{0}
\setcounter{blind@randommax}{0}
\setcounter{blind@pangramcount}{0}
\setcounter{blind@pangrammax}{0}
\setcounter{tikztiming@nrows}{0}
\setcounter{tikztimingrows}{0}
\setcounter{tikztimingtrans}{0}
\setcounter{tikztimingtranspos}{0}
\setcounter{csvinputline}{0}
\setcounter{csvrow}{0}
\setcounter{csvcol}{0}
\setcounter{AM@survey}{0}
\setcounter{lstlisting}{0}
\setcounter{section@level}{0}
}
