\relax 
\providecommand\hyper@newdestlabel[2]{}
\providecommand*\new@tpo@label[2]{}
\providecommand\babel@aux[2]{}
\@nameuse{bbl@beforestart}
\catcode `"\active 
\providecommand\HyperFirstAtBeginDocument{\AtBeginDocument}
\HyperFirstAtBeginDocument{\ifx\hyper@anchor\@undefined
\global\let\oldcontentsline\contentsline
\gdef\contentsline#1#2#3#4{\oldcontentsline{#1}{#2}{#3}}
\global\let\oldnewlabel\newlabel
\gdef\newlabel#1#2{\newlabelxx{#1}#2}
\gdef\newlabelxx#1#2#3#4#5#6{\oldnewlabel{#1}{{#2}{#3}}}
\AtEndDocument{\ifx\hyper@anchor\@undefined
\let\contentsline\oldcontentsline
\let\newlabel\oldnewlabel
\fi}
\fi}
\global\let\hyper@last\relax 
\gdef\HyperFirstAtBeginDocument#1{#1}
\providecommand\HyField@AuxAddToFields[1]{}
\providecommand\HyField@AuxAddToCoFields[2]{}
\providecommand\BKM@entry[2]{}
\AC@reset@newl@bel
\@input{Deckblatt.aux}
\babel@aux{ngerman}{}
\@input{ErklaerungEigenleistung.aux}
\@input{Vorwort.aux}
\BKM@entry{id=1,open,dest={636861707465722E33},srcline={1}}{566F72776F7274}
\@input{Ansatz.aux}
\BKM@entry{id=2,open,dest={636861707465722E34},srcline={1}}{5468656F72657469736368657220416E7361747A}
\@input{Simulation.aux}
\BKM@entry{id=3,open,dest={636861707465722E3237},srcline={1}}{53696D756C6174696F6E20696E204D41544C41422053696D756C696E6B}
\@input{Anmerkung.aux}
\BKM@entry{id=4,open,dest={636861707465722E3332},srcline={1}}{416E6D65726B756E67656E}
\BKM@entry{id=5,open,dest={73656374696F6E2E3333},srcline={4}}{4D65687267725C3336365C333337656E73797374656D}
\BKM@entry{id=6,open,dest={73656374696F6E2E3334},srcline={6}}{4C512D5265676C6572656E7477757266}
\BKM@entry{id=7,open,dest={73656374696F6E2E3335},srcline={8}}{53745C3336367267725C3336365C333337656E617566736368616C74756E67}
\BKM@entry{id=8,open,dest={636861707465722A2E3337},srcline={118}}{416262696C64756E67737665727A656963686E6973}
\bibdata{LiteraturCitavi.bib}
\@writefile{toc}{\contentsline {chapter}{\nonumberline Abbildungsverzeichnis}{12}{chapter*.37}\protected@file@percent }
\BKM@entry{id=9,open,dest={636861707465722A2E3338},srcline={1}}{4C69746572617475727665727A656963686E6973}
\bibcite{Wikipedia.2021}{{1}{2021}{{Wikipedia.2021}}{{}}}
\bibcite{Ulrich.2020}{{2}{2020}{{Burkhard}}{{}}}
\bibcite{Hagl.2015}{{3}{2015}{{Hagl}}{{}}}
\bibcite{Kuemmeke.2021}{{4}{2021}{{K{\"u}mmeke}}{{}}}
\bibcite{Lohmann.1998}{{5}{1998}{{Prof. Dr. Ing. habil. Boris Lohmann}}{{}}}
\bibcite{Wystup.2021b}{{6}{2021{a}}{{Wystup}}{{}}}
\bibcite{Wystup.2021}{{7}{2021{b}}{{Wystup}}{{}}}
\bibstyle{dinat}
\@writefile{toc}{\contentsline {chapter}{\nonumberline Literaturverzeichnis}{13}{chapter*.38}\protected@file@percent }
\@writefile{lof}{\addvspace {10\p@ }}
\@writefile{lot}{\addvspace {10\p@ }}
\@writefile{lol}{\addvspace {10\p@ }}
\global\@namedef{scr@dte@chapter@lastmaxnumwidth}{11.8799pt}
\global\@namedef{scr@dte@section@lastmaxnumwidth}{19.71382pt}
\global\@namedef{scr@dte@figure@lastmaxnumwidth}{19.71382pt}
\@writefile{toc}{\providecommand\tocbasic@end@toc@file{}\tocbasic@end@toc@file}
\@writefile{lof}{\providecommand\tocbasic@end@toc@file{}\tocbasic@end@toc@file}
\gdef \@abspage@last{16}
