\relax 
\providecommand\hyper@newdestlabel[2]{}
\@writefile{toc}{\contentsline {chapter}{\numberline {3}Simulation in MATLAB Simulink}{8}{chapter.27}\protected@file@percent }
\@writefile{lof}{\addvspace {10\p@ }}
\@writefile{lot}{\addvspace {10\p@ }}
\@writefile{lol}{\addvspace {10\p@ }}
\newlabel{cha:Simulation}{{3}{8}{Simulation in MATLAB Simulink}{chapter.27}{}}
\@writefile{lof}{\contentsline {figure}{\numberline {3.1}{\ignorespaces Zustandsraumregelung eines DC-Motors in Simulink}}{8}{figure.28}\protected@file@percent }
\newlabel{fig:Zustandsraumregelung_DC_Motor}{{3.1}{8}{Zustandsraumregelung eines DC-Motors in Simulink}{figure.28}{}}
\@writefile{lof}{\contentsline {figure}{\numberline {3.2}{\ignorespaces Definieren der Variablen mittels Initialisierungsfunktion}}{8}{figure.29}\protected@file@percent }
\newlabel{fig:ModelPropertiesPlot2}{{3.2}{8}{Definieren der Variablen mittels Initialisierungsfunktion}{figure.29}{}}
\@writefile{lof}{\contentsline {figure}{\numberline {3.3}{\ignorespaces Kennlinien der Regelgröße Plot2}}{9}{figure.30}\protected@file@percent }
\newlabel{fig:Plot2}{{3.3}{9}{Kennlinien der Regelgröße Plot2}{figure.30}{}}
\@writefile{lof}{\contentsline {figure}{\numberline {3.4}{\ignorespaces Kennlinien der Regelgröße Plot1}}{9}{figure.31}\protected@file@percent }
\newlabel{fig:Plot1}{{3.4}{9}{Kennlinien der Regelgröße Plot1}{figure.31}{}}
\@setckpt{Simulation}{
\setcounter{page}{11}
\setcounter{equation}{0}
\setcounter{enumi}{0}
\setcounter{enumii}{0}
\setcounter{enumiii}{0}
\setcounter{enumiv}{0}
\setcounter{footnote}{0}
\setcounter{mpfootnote}{0}
\setcounter{part}{0}
\setcounter{chapter}{3}
\setcounter{section}{0}
\setcounter{subsection}{0}
\setcounter{subsubsection}{0}
\setcounter{paragraph}{0}
\setcounter{subparagraph}{0}
\setcounter{figure}{4}
\setcounter{table}{0}
\setcounter{subfigure}{0}
\setcounter{lofdepth}{1}
\setcounter{subtable}{0}
\setcounter{lotdepth}{1}
\setcounter{parentequation}{0}
\setcounter{float@type}{8}
\setcounter{OptionTest}{0}
\setcounter{lstnumber}{1}
\setcounter{NAT@ctr}{0}
\setcounter{Item}{0}
\setcounter{Hfootnote}{0}
\setcounter{bookmark@seq@number}{0}
\setcounter{LT@tables}{0}
\setcounter{LT@chunks}{0}
\setcounter{@todonotes@numberoftodonotes}{0}
\setcounter{blindtext}{1}
\setcounter{Blindtext}{5}
\setcounter{blind@countparstart}{0}
\setcounter{blindlist}{0}
\setcounter{blindlistlevel}{0}
\setcounter{blindlist@level}{0}
\setcounter{blind@listcount}{0}
\setcounter{blind@levelcount}{0}
\setcounter{blind@randomcount}{0}
\setcounter{blind@randommax}{0}
\setcounter{blind@pangramcount}{0}
\setcounter{blind@pangrammax}{0}
\setcounter{tikztiming@nrows}{0}
\setcounter{tikztimingrows}{0}
\setcounter{tikztimingtrans}{0}
\setcounter{tikztimingtranspos}{0}
\setcounter{csvinputline}{0}
\setcounter{csvrow}{0}
\setcounter{csvcol}{0}
\setcounter{AM@survey}{0}
\setcounter{lstlisting}{0}
\setcounter{section@level}{0}
}
